<?xml version="1.0" encoding="UTF-8" standalone="no"?>
<svg
   xmlns:dc="http://purl.org/dc/elements/1.1/"
   xmlns:cc="http://creativecommons.org/ns#"
   xmlns:rdf="http://www.w3.org/1999/02/22-rdf-syntax-ns#"
   xmlns:svg="http://www.w3.org/2000/svg"
   xmlns="http://www.w3.org/2000/svg"
   xmlns:sodipodi="http://sodipodi.sourceforge.net/DTD/sodipodi-0.dtd"
   xmlns:inkscape="http://www.inkscape.org/namespaces/inkscape"
   aria-hidden="true"
   focusable="false"
   data-prefix="fas"
   data-icon="bars"
   class="svg-inline--fa fa-bars fa-w-14"
   role="img"
   viewBox="0 0 448 512"
   version="1.1"
   id="svg3763"
   sodipodi:docname="bars-solid.svg"
   inkscape:version="0.92.4 (5da689c313, 2019-01-14)">
  <metadata
     id="metadata3769">
    <rdf:RDF>
      <cc:Work
         rdf:about="">
        <dc:format>image/svg+xml</dc:format>
        <dc:type
           rdf:resource="http://purl.org/dc/dcmitype/StillImage" />
      </cc:Work>
    </rdf:RDF>
  </metadata>
  <defs
     id="defs3767" />
  <sodipodi:namedview
     pagecolor="#ffffff"
     bordercolor="#666666"
     borderopacity="1"
     objecttolerance="10"
     gridtolerance="10"
     guidetolerance="10"
     inkscape:pageopacity="0"
     inkscape:pageshadow="2"
     inkscape:window-width="1366"
     inkscape:window-height="715"
     id="namedview3765"
     showgrid="false"
     inkscape:zoom="1.0488281"
     inkscape:cx="224"
     inkscape:cy="256"
     inkscape:window-x="0"
     inkscape:window-y="0"
     inkscape:window-maximized="1"
     inkscape:current-layer="svg3763" />
  <path
     fill="currentColor"
     d="M16 132h416c8.837 0 16-7.163 16-16V76c0-8.837-7.163-16-16-16H16C7.163 60 0 67.163 0 76v40c0 8.837 7.163 16 16 16zm0 160h416c8.837 0 16-7.163 16-16v-40c0-8.837-7.163-16-16-16H16c-8.837 0-16 7.163-16 16v40c0 8.837 7.163 16 16 16zm0 160h416c8.837 0 16-7.163 16-16v-40c0-8.837-7.163-16-16-16H16c-8.837 0-16 7.163-16 16v40c0 8.837 7.163 16 16 16z"
     id="path3761" />
  <path
     style="fill:#ececec;stroke-width:0.95344508"
     d="M 8.4260708,129.31521 C 5.9122972,127.90897 3.869917,125.72055 2.4344176,122.89514 0.31282256,118.71933 0.26354709,117.98821 0.52752742,94.601668 0.78183573,72.071998 0.91947305,70.432896 2.7643124,67.964118 5.6051412,64.1625 8.9997815,61.874301 13.267087,60.884594 c 5.578414,-1.293789 415.682903,-1.187768 421.729653,0.109027 5.6077,1.202639 11.06833,6.453614 12.01564,11.554333 0.32234,1.735572 0.45385,13.487292 0.29224,26.114935 l -0.29382,22.959351 -2.56815,3.36457 c -5.41262,7.09114 14.8955,6.49505 -220.68209,6.47758 l -211.520709,-0.0157 z"
     id="path3771"
     inkscape:connector-curvature="0" />
  <path
     style="fill:#ececec;stroke-width:0.95344508"
     d="m 8.8646774,289.46331 c -2.8377664,-1.50065 -4.846708,-3.50959 -6.3473547,-6.34735 -2.11451018,-3.9986 -2.19553499,-4.99189 -2.19553499,-26.91517 0,-16.96175 0.32830422,-23.54908 1.28814659,-25.84631 1.9449298,-4.65487 7.4616617,-9.02164 12.2582127,-9.70298 2.250806,-0.31972 98.268913,-0.45599 213.373563,-0.30281 l 209.2812,0.2785 3.37337,2.09814 c 1.85536,1.15398 4.3224,3.7867 5.48231,5.85049 2.02047,3.59495 2.10828,4.74667 2.09325,27.45865 -0.0151,22.7586 -0.10098,23.85878 -2.14918,27.52009 -1.40575,2.5129 -3.58325,4.54553 -6.38373,5.95903 l -4.25024,2.14526 H 223.85259 13.016496 Z"
     id="path3773"
     inkscape:connector-curvature="0" />
  <path
     style="fill:#ececec;stroke-width:0.95344508"
     d="M 11.385871,450.85184 C 9.8673937,450.39507 7.3475121,448.82107 5.7861353,447.35406 0.64820554,442.52667 0.32178771,440.641 0.32178771,415.78729 c 0,-21.92328 0.0810248,-22.91656 2.19553499,-26.91516 1.5006467,-2.83777 3.5095883,-4.84671 6.3473547,-6.34736 l 4.1518186,-2.19553 h 210.836094 210.8361 l 4.25024,2.14525 c 2.80048,1.4135 4.97798,3.44613 6.38373,5.95903 2.0482,3.66132 2.13412,4.76149 2.14918,27.52009 0.0151,22.71198 -0.0727,23.8637 -2.09325,27.45865 -1.15991,2.06379 -3.62695,4.69651 -5.48231,5.85049 l -3.37337,2.09814 -211.18809,0.16072 c -117.73628,0.0896 -212.409778,-0.20678 -213.948949,-0.66977 z"
     id="path3775"
     inkscape:connector-curvature="0" />
  <path
     style="fill:#ececec;stroke-width:0.95344508"
     d="M 8.8930977,448.73892 C 2.5819047,444.44356 1.9179988,442.66543 1.0574079,427.75276 0.62650151,420.28584 0.54125103,409.24246 0.86796233,403.21192 1.5590963,390.45475 3.1593443,386.53213 9.0151911,383.24096 c 2.0357609,-1.14416 3.7013699,-2.37463 3.7013559,-2.73437 -1.5e-5,-0.35974 94.927363,-0.43955 210.949723,-0.17735 l 210.94974,0.47672 3.95607,2.11561 c 6.71419,3.5906 7.64143,6.19189 8.25219,23.15068 0.29273,8.12812 0.22146,19.53191 -0.15837,25.34176 -0.7431,11.36666 -1.86771,13.99995 -7.59098,17.77452 -2.41959,1.59574 -13.56513,1.6834 -214.79091,1.68936 l -212.238885,0.006 z"
     id="path3777"
     inkscape:connector-curvature="0" />
  <path
     style="fill:#ececec;stroke-width:0.95344508"
     d="M 8.8930977,448.73892 C 2.7794073,444.57798 1.9641725,442.54965 1.0446957,429.21181 0.58307504,422.5156 0.46634972,411.48161 0.78530589,404.69184 1.4525521,390.48786 2.7912735,386.9667 8.9779763,383.14311 c 2.0562277,-1.27082 3.7385947,-2.53109 3.7385907,-2.80059 -10e-6,-0.63791 421.749983,-0.64226 422.376173,-0.004 0.26219,0.26711 2.28822,1.65969 4.50227,3.09463 6.99212,4.53162 7.24183,5.63158 7.30417,32.17391 0.0619,26.34713 -0.39389,28.51741 -6.92008,32.95208 l -3.42213,2.32539 H 224.30105 12.045125 Z"
     id="path3779"
     inkscape:connector-curvature="0" />
  <path
     style="fill:#ececec;stroke-width:0.95344508"
     d="M 8.8287981,128.77776 C 1.476394,124.115 1.1349597,122.50663 1.4664532,94.096438 L 1.7519553,69.627877 4.5101677,66.750663 c 1.5170168,-1.582467 4.3037523,-3.61062 6.1927453,-4.507006 3.20905,-1.522793 17.101856,-1.62414 211.612997,-1.543695 114.49816,0.04735 209.89532,0.376156 211.99368,0.730672 2.65559,0.448659 5.0932,1.869099 8.01984,4.673329 l 4.20465,4.028754 v 25.450173 25.45017 l -2.44784,3.69893 c -1.34631,2.03442 -3.3843,3.99738 -4.52886,4.36214 -4.33364,1.38108 -101.21403,2.23899 -260.99306,2.31118 l -165.474415,0.0748 z"
     id="path3781"
     inkscape:connector-curvature="0" />
  <path
     style="fill:#ececec;stroke-width:0.95344508"
     d="M 8.7823951,128.74833 C 1.3956806,124.06382 1.1415519,122.86882 1.4684524,94.355764 L 1.7519553,69.627961 4.5101677,66.750706 c 1.5170168,-1.582491 4.3037523,-3.610663 6.1927453,-4.507049 3.20905,-1.522793 17.101856,-1.62414 211.612997,-1.543695 114.49816,0.04735 209.89532,0.376156 211.99368,0.730672 2.65559,0.448659 5.0932,1.869099 8.01984,4.673329 l 4.20465,4.028754 v 25.721218 25.721215 l -2.41617,3.27493 c -1.32889,1.80121 -3.36688,3.66105 -4.52886,4.13297 -3.77891,1.53473 -91.29975,2.34887 -260.54801,2.42368 l -165.951135,0.0733 z"
     id="path3783"
     inkscape:connector-curvature="0" />
  <path
     style="fill:#b3b3b3;stroke-width:0.95344508"
     d="M 10.506407,130.52663 C 5.2347887,126.17513 2.2420447,122.50603 1.7349526,119.77281 1.42157,118.08368 1.2971926,106.1057 1.4585581,93.155057 L 1.75195,69.608442 5.0202736,66.238193 c 1.797578,-1.853637 4.8009301,-3.892499 6.6741164,-4.530804 4.710042,-1.604992 420.58194,-1.438158 424.85352,0.170437 1.55944,0.587252 4.44427,2.630937 6.41075,4.541523 l 3.57542,3.473791 V 95.629771 121.3664 l -2.49824,3.60497 c -1.76052,2.54043 -3.37943,3.73699 -5.48231,4.05206 -1.64123,0.2459 -5.12932,0.74159 -7.75129,1.10154 -2.62197,0.35995 -97.87133,0.91936 -211.66524,1.24314 -183.085127,0.52093 -207.097427,0.42408 -208.630593,-0.84148 z"
     id="path14"
     inkscape:connector-curvature="0" />
  <path
     style="fill:#b3b3b3;stroke-width:0.95344508"
     d="m 12.716542,291.48149 c 1.4e-5,-0.35974 -1.665595,-1.59021 -3.701356,-2.73437 C 6.979425,287.60296 4.45713,285.10847 3.4100857,283.2038 0.89167529,278.6226 -0.003586,265.55888 0.87877346,246.26669 1.6298923,229.844 2.405665,227.59994 8.8281143,223.27185 l 3.2170057,-2.16794 212.23889,0.006 c 201.22579,0.006 212.37132,0.0936 214.79091,1.68936 5.72327,3.77458 6.84788,6.40786 7.59099,17.77452 0.37982,5.80985 0.45109,17.21364 0.15836,25.34176 -0.61075,16.9588 -1.538,19.56008 -8.25219,23.15068 l -3.95606,2.11561 -210.94975,0.47673 c -116.02236,0.26219 -210.949743,0.18238 -210.949728,-0.17736 z"
     id="path16"
     inkscape:connector-curvature="0" />
  <path
     style="fill:#b3b3b3;stroke-width:0.95344508"
     d="M 7.2363969,447.53178 C 1.3758351,442.51536 0.91457962,440.17416 0.85269369,415.12999 l -0.0541888,-21.92924 2.55213701,-4.34112 c 1.4551955,-2.47524 4.0164647,-5.1297 5.9590318,-6.17585 1.8737923,-1.0091 3.4068923,-2.05895 3.4068883,-2.333 -10e-6,-0.64331 421.744708,-0.65592 422.376178,-0.0126 0.2622,0.26711 2.28822,1.65969 4.50228,3.09463 7.02585,4.55349 7.27253,5.63423 7.344,32.17392 0.0709,26.34623 -0.37992,28.48085 -6.95992,32.95208 l -3.42212,2.32539 H 223.85494 11.152916 Z"
     id="path18"
     inkscape:connector-curvature="0" />
</svg>
